module gitlab.com/capoverflow/ao3apicdp

go 1.18

require (
	github.com/PuerkitoBio/goquery v1.8.1
	github.com/chromedp/cdproto v0.0.0-20230502002814-67c6147a4636
	github.com/chromedp/chromedp v0.9.1
)

require (
	github.com/andybalholm/cascadia v1.3.2 // indirect
	github.com/chromedp/sysutil v1.0.0 // indirect
	github.com/gobwas/httphead v0.1.0 // indirect
	github.com/gobwas/pool v0.2.1 // indirect
	github.com/gobwas/ws v1.2.0 // indirect
	github.com/josharian/intern v1.0.0 // indirect
	github.com/mailru/easyjson v0.7.7 // indirect
	golang.org/x/net v0.9.0 // indirect
	golang.org/x/sys v0.8.0 // indirect
)
